构建投资组合与再平衡策略的实现 | Zhang Jian's Homepage
…
使用tidyquant中的tq_portfolio来计算收益率，手动计算也完全没有问题，思路是把50-50权重合并到数据集上，生成一个新的组合收益率即可。

# 给出权重50-50
wts <- c(0.5,0.5)
#计算日收益率
stock_long_daily_r <-stock_long %>%
  group_by(name) %>%
  tq_transmute(select = price,
               mutate_fun = periodReturn,
               period = 'daily',
               col_rename = "Ra")
stock_long_daily_r

## # A tibble: 3,052 x 3
## # Groups:   name [2]
##    name        trade_date        Ra
##    <chr>       <date>         <dbl>
##  1 close_hs300 2014-01-02  0       
##  2 close_hs300 2014-01-03 -0.0134  
##  3 close_hs300 2014-01-06 -0.0228  
##  4 close_hs300 2014-01-07 -0.000284
##  5 close_hs300 2014-01-08  0.00175 
##  6 close_hs300 2014-01-09 -0.00878 
##  7 close_hs300 2014-01-10 -0.00782 
##  8 close_hs300 2014-01-13 -0.00507 
##  9 close_hs300 2014-01-14  0.00874 
## 10 close_hs300 2014-01-15 -0.00176 
## # ... with 3,042 more rows

port_daily_r <- stock_long_daily_r %>%
  tq_portfolio(assets_col = name,
               returns_col = Ra,
               weights = wts,
               col_rename = "port_RA")
port_daily_r

## # A tibble: 1,526 x 2
##    trade_date    port_RA
##    <date>          <dbl>
##  1 2014-01-02  0        
##  2 2014-01-03 -0.00663  
##  3 2014-01-06 -0.0110   
##  4 2014-01-07 -0.0000473
##  5 2014-01-08  0.000950 
##  6 2014-01-09 -0.00422  
##  7 2014-01-10 -0.00373  
##  8 2014-01-13 -0.00220  
##  9 2014-01-14  0.00433  
## 10 2014-01-15 -0.000772 
## # ... with 1,516 more rows
…
