投资组合有效前沿——模拟与真实数据 | Zhang Jian's Homepage
…
for (i in seq(1,2000)){
  weight <- rnorm(length(return_m)) ## 随机权重,权重和是否为1
  weight <- weight/(sum(weight)) ## 随机权重,权重和是否为1
  weight <- matrix(weight,nrow=1) # 转换为矩阵
  p_ret = append(p_ret, weight %*% return_m)
  p_sig = append(p_sig,sqrt(weight %*% sigma %*% t(weight)))
}
df <- tibble(p_ret,p_sig)
df_p <- df %>%
  mutate(p_ret = as.numeric(p_ret),p_sig= as.numeric(p_sig)) %>%
  dplyr::filter(p_sig<1)
df_p

## # A tibble: 1,924 x 2
##       p_ret  p_sig
##       <dbl>  <dbl>
##  1  0.00685 0.0716
##  2 -0.00942 0.139 
##  3  0.00163 0.248 
##  4  0.0144  0.0854
##  5  0.0114  0.0824
##  6  0.0173  0.0854
##  7  0.0215  0.0938
##  8  0.0150  0.156 
##  9  0.00580 0.117 
## 10  0.0154  0.0771
## # ... with 1,914 more rows
…
